digraph G {
  node [fontname="mononoki"]

  subgraph a {
           A
  }
  subgraph b {
           E
           B
  }
  subgraph c {
           C
           F
  }
  subgraph d {
           H
           K
           L
           J
           I
           G
  }
  subgraph e {
           D
  }

A -> B
B -> D
B -> E
B -> C
E -> B
E -> G
E -> F
F -> C
F -> H
C -> F
G -> H
G -> J
H -> K
K -> L
L -> J
J -> I
I -> G

}
